4 Análise e Visualização dos dados no R – <i class='fas fa-bug' style='color: #2F855A;'></i> Caderno de Aulas: Análise e Visualização de Dados em Fitopatologia
…
Além dos dados internos do R, é comum trabalhar com planilhas externas, como arquivos .xlsx do Excel. Para isso, utilizamos o pacote readxl, que permite importar planilhas de forma simples e eficiente.

Nos exemplos abaixo, carregamos planilhas de dados no Excel dados-diversos.xlsx:

5.0.2.1 Exemplo de dados em formato excel

library(tidyverse)
library(readxl)

dados3 <- read_excel("dados-diversos.xlsx",
                    sheet = "sensibilidade_fungicidas")
dados3

# A tibble: 240 × 7
   code   year trial state dose  replicate germination
   <chr> <dbl> <dbl> <chr> <chr>     <dbl>       <dbl>
 1 FGT05  2007     1 RS    0             1          46
 2 FGT05  2007     1 RS    0             2          44
 3 FGT05  2007     1 RS    0.05          1          18
 4 FGT05  2007     1 RS    0.05          2          24
 5 FGT05  2007     1 RS    0.5           1           9
 6 FGT05  2007     1 RS    0.5           2          11
 7 FGT05  2007     1 RS    1             1           0
 8 FGT05  2007     1 RS    1             2           0
 9 FGT05  2007     1 RS    5             1           0
10 FGT05  2007     1 RS    5             2           0
# ℹ 230 more rows
…
campo <- read_excel("dados-diversos.xlsx","fungicida_campo")
campo

# A tibble: 32 × 5
    TRAT BLOCO   DFC   FER  PROD
   <dbl> <dbl> <dbl> <dbl> <dbl>
 1     1     1  10    17   4611.
 2     1     2  10.5  21   4312.
 3     1     3  12    25   4544.
 4     1     4  11    18   3409.
 5     2     1   6.2   6.5 5023.
 6     2     2   6     4   4839.
 7     2     3   7     8   4903.
 8     2     4   6.5   5   4975.
 9     3     1   6     6   5235.
10     3     2   6.2   3.5 5014.
# ℹ 22 more rows

milho <- read_excel("dados-diversos.xlsx","milho")
milho

# A tibble: 48 × 5
   hybrid   block method index yield
   <chr>    <dbl> <chr>  <dbl> <dbl>
 1 30F53 HX     1 pin     21.1 12920
 2 30F53 HX     2 pin     21.1  9870
 3 30F53 HX     3 pin     23.3  8920
 4 30F53 HX     4 pin     35.6 13120
 5 30F53 YH     1 pin     21.1 12060
 6 30F53 YH     2 pin     22.2  7860
 7 30F53 YH     3 pin     27.3  7410
 8 30F53 YH     4 pin     27.8 10300
 9 30K64        1 pin     20.0 11700
10 30K64        2 pin     20.0 10700
# ℹ 38 more rows
…
survey <- gsheet2tbl("https://docs.google.com/spreadsheets/d/1bq2N19DcZdtax2fQW9OHSGMR0X2__Z9T/edit?gid=1118819738#gid=1118819738")
survey

# A tibble: 666 × 6
    year state residue   inc inc_class species
   <dbl> <chr> <chr>   <dbl> <chr>     <chr>  
 1  2011 RS    soybean     1 low       Fgra   
 2  2011 RS    soybean     1 low       Fgra   
 3  2011 RS    soybean     1 low       Fgra   
 4  2011 RS    soybean     1 low       Fgra   
 5  2011 RS    soybean     1 low       Fgra   
 6  2011 RS    soybean     1 low       Fgra   
 7  2011 RS    corn        1 low       Fgra   
 8  2010 RS    soybean     2 low       Fspp   
 9  2010 RS    corn        2 low       Fgra   
10  2011 RS    soybean     2 low       Fgra   
# ℹ 656 more rows
…
micelial <- gsheet2tbl("https://docs.google.com/spreadsheets/d/1bq2N19DcZdtax2fQW9OHSGMR0X2__Z9T/edit?gid=959387827#gid=959387827")
micelial

# A tibble: 30 × 3
   especie   rep   tcm
   <chr>   <dbl> <dbl>
 1 Fasi        1  1.5 
 2 Fasi        2  1.59
 3 Fasi        3  1.52
 4 Fasi        4  1.52
 5 Fasi        5  1.6 
 6 Fasi        6  1.7 
 7 Faus        1  1.52
 8 Faus        2  1.25
 9 Faus        3  1.27
10 Faus        4  1.3 
# ℹ 20 more rows
…
micelial <- gsheet2tbl("https://docs.google.com/spreadsheets/d/1bq2N19DcZdtax2fQW9OHSGMR0X2__Z9T/edit?gid=959387827#gid=959387827")
micelial

# A tibble: 30 × 3
   especie   rep   tcm
   <chr>   <dbl> <dbl>
 1 Fasi        1  1.5 
 2 Fasi        2  1.59
 3 Fasi        3  1.52
 4 Fasi        4  1.52
 5 Fasi        5  1.6 
 6 Fasi        6  1.7 
 7 Faus        1  1.52
 8 Faus        2  1.25
 9 Faus        3  1.27
10 Faus        4  1.3 
# ℹ 20 more rows

estande <- gsheet2tbl("https://docs.google.com/spreadsheets/d/1bq2N19DcZdtax2fQW9OHSGMR0X2__Z9T/edit?gid=401662555#gid=401662555")
estande

# A tibble: 72 × 4
     exp  trat bloco nplants
   <dbl> <dbl> <dbl>   <dbl>
 1     1     0     1      66
 2     1     0     2      72
 3     1     0     3      50
 4     1     0     4      27
 5     1     3     1      68
 6     1     3     2      79
 7     1     3     3      31
 8     1     3     4      32
 9     1     6     1      58
10     1     6     2      56
# ℹ 62 more rows

fungi <- gsheet2tbl("https://docs.google.com/spreadsheets/d/1bq2N19DcZdtax2fQW9OHSGMR0X2__Z9T/edit?gid=465348652#gid=465348652")
fungi

# A tibble: 240 × 9
   code   year trial state  dose replicate germination ...8  ...9 
   <chr> <dbl> <dbl> <chr> <dbl>     <dbl>       <dbl> <lgl> <lgl>
 1 FGT05  2007     1 RS     0            1          46 NA    NA   
 2 FGT05  2007     1 RS     0            2          44 NA    NA   
 3 FGT05  2007     1 RS     0.05         1          18 NA    NA   
 4 FGT05  2007     1 RS     0.05         2          24 NA    NA   
 5 FGT05  2007     1 RS     0.5          1           9 NA    NA   
 6 FGT05  2007     1 RS     0.5          2          11 NA    NA   
 7 FGT05  2007     1 RS     1            1           0 NA    NA   
 8 FGT05  2007     1 RS     1            2           0 NA    NA   
 9 FGT05  2007     1 RS     5            1           0 NA    NA   
10 FGT05  2007     1 RS     5            2           0 NA    NA   
# ℹ 230 more rows

cr <- gsheet2tbl("https://docs.google.com/spreadsheets/d/1bq2N19DcZdtax2fQW9OHSGMR0X2__Z9T/edit?gid=1871397229#gid=1871397229")
cr

# A tibble: 405 × 13
    farm region zone       district      lon   lat altitude cultivar shade    
   <dbl> <chr>  <chr>      <chr>       <dbl> <dbl>    <dbl> <chr>    <chr>    
 1     1 SNNPR  Bench Maji Debub Bench  35.4  6.90     1100 Local    Sun      
 2     2 SNNPR  Bench Maji Debub Bench  35.4  6.90     1342 Mixture  Mid shade
 3     3 SNNPR  Bench Maji Debub Bench  35.4  6.90     1434 Mixture  Mid shade
 4     4 SNNPR  Bench Maji Debub Bench  35.4  6.90     1100 Local    Sun      
 5     5 SNNPR  Bench Maji Debub Bench  35.4  6.90     1400 Local    Sun      
 6     6 SNNPR  Bench Maji Debub Bench  35.4  6.90     1342 Mixture  Mid shade
 7     7 SNNPR  Bench Maji Debub Bench  35.4  6.90     1432 Mixture  Mid shade
 8     8 SNNPR  Bench Maji Debub Bench  35.4  6.90     1100 Local    Sun      
 9     9 SNNPR  Bench Maji Debub Bench  35.4  6.89     1400 Local    Sun      
10    10 SNNPR  Bench Maji Debub Bench  35.4  6.88     1342 Mixture  Mid shade
# ℹ 395 more rows
# ℹ 4 more variables: cropping_system <chr>, farm_management <chr>, inc <dbl>,
#   sev2 <dbl>
…
7.3 Teste de Wilcoxon

O teste de Wilcoxon é uma alternativa não paramétrica ao teste t, usado quando os dados não seguem uma distribuição normal. Ele pode ser aplicado tanto para amostras independentes (wilcox.test(x, y)) quanto para amostras pareadas (wilcox.test(x, y, paired = TRUE)). Em vez de comparar médias, como o teste t, o Wilcoxon compara as posições (ou postos) dos valores, tornando-o mais robusto para dados assimétricos ou com outliers. Esse teste é ideal em análises onde a suposição de normalidade não é atendida, garantindo resultados confiáveis mesmo com dados não ideais. É muito utilizado em estudos biológicos, agronômicos e de ciências aplicadas quando se busca uma alternativa mais segura aos testes paramétricos tradicionais.

7.4 Anova - Análise de variância

A Análise de Variância (ANOVA) é uma técnica estatística usada para verificar se existem diferenças significativas entre três ou mais médias de grupos. Ao invés de comparar pares de médias isoladamente, como no teste t, a ANOVA avalia se pelo menos um grupo difere significativamente dos demais com base na variação dos dados. No R, a função aov() permite aplicar o modelo de ANOVA, geralmente combinada com summary() para visualizar os resultados. Se o valor-p do teste for menor que 0,05, rejeita-se a hipótese de que todas as médias são iguais. No entanto, a ANOVA apenas indica que há diferenças — para saber quais grupos diferem entre si, é necessário aplicar testes de comparações múltiplas (como Tukey ou Dunnett). A ANOVA é amplamente utilizada em experimentos agrícolas, biomédicos e nas ciências sociais por sua capacidade de lidar com vários tratamentos ao mesmo tempo.

micelial

# A tibble: 30 × 3
   especie   rep   tcm
   <chr>   <dbl> <dbl>
 1 Fasi        1  1.5 
 2 Fasi        2  1.59
 3 Fasi        3  1.52
 4 Fasi        4  1.52
 5 Fasi        5  1.6 
 6 Fasi        6  1.7 
 7 Faus        1  1.52
 8 Faus        2  1.25
 9 Faus        3  1.27
10 Faus        4  1.3 
# ℹ 20 more rows
…
O Delineamento Inteiramente Casualizado (DIC) é o plano experimental mais básico e simples para estudos que utilizam Análise de Variância (ANOVA). Ele é empregado quando as unidades experimentais (por exemplo, parcelas de terra, animais, indivíduos) são consideradas homogêneas, ou seja, não há nenhuma fonte de variação conhecida que possa diferenciá-las sistematicamente antes da aplicação dos tratamentos.

A característica principal do DIC é que os tratamentos são alocados às unidades experimentais de forma completamente aleatória, sem restrições, garantindo que cada unidade tenha a mesma chance de receber qualquer um dos tratamentos. Isso ajuda a distribuir uniformemente quaisquer variações não controladas entre os grupos, permitindo que qualquer diferença observada na variável resposta seja atribuída aos tratamentos aplicados.

A ANOVA é utilizada para analisar os dados de um DIC, comparando as médias dos grupos de tratamento para verificar se existem diferenças estatisticamente significativas entre eles. É ideal para experimentos em laboratório ou em ambientes muito controlados, onde a uniformidade das condições pode ser assegurada.

campo

# A tibble: 32 × 5
    TRAT BLOCO   DFC   FER  PROD
   <dbl> <dbl> <dbl> <dbl> <dbl>
 1     1     1  10    17   4611.
 2     1     2  10.5  21   4312.
 3     1     3  12    25   4544.
 4     1     4  11    18   3409.
 5     2     1   6.2   6.5 5023.
 6     2     2   6     4   4839.
 7     2     3   7     8   4903.
 8     2     4   6.5   5   4975.
 9     3     1   6     6   5235.
10     3     2   6.2   3.5 5014.
# ℹ 22 more rows
…
Nesse delineamento, as unidades experimentais são divididas em:

Parcelas Principais: Onde os níveis do fator principal são aplicados aleatoriamente.

Subparcelas: Cada parcela principal é subdividida em subparcelas, e os níveis do segundo fator (ou fatores) são aplicados aleatoriamente dentro de cada subparcela.

A análise de dados de um delineamento com parcelas subdivididas frequentemente requer um Modelo Misto. Um Modelo Misto é um tipo de modelo estatístico que incorpora tanto efeitos fixos quanto efeitos aleatórios.

Efeitos Fixos: São os efeitos dos tratamentos (fatores) que o pesquisador está interessado em comparar diretamente (por exemplo, diferentes tipos de fertilizante, variedades de plantas).

Efeitos Aleatórios: São os efeitos de fatores cujos níveis são amostras de uma população maior de possíveis níveis, ou que representam fontes de variação que não são de interesse direto, mas precisam ser contabilizadas (por exemplo, o bloco experimental, ou a parcela principal no delineamento split-plot). A parcela principal, no contexto de um delineamento split-plot, é geralmente tratada como um efeito aleatório porque as subparcelas dentro dela compartilham as mesmas condições do fator principal, introduzindo uma correlação entre as observações dentro da mesma parcela principal.

milho

# A tibble: 48 × 5
   hybrid   block method index yield
   <chr>    <dbl> <chr>  <dbl> <dbl>
 1 30F53 HX     1 pin     21.1 12920
 2 30F53 HX     2 pin     21.1  9870
 3 30F53 HX     3 pin     23.3  8920
 4 30F53 HX     4 pin     35.6 13120
 5 30F53 YH     1 pin     21.1 12060
 6 30F53 YH     2 pin     22.2  7860
 7 30F53 YH     3 pin     27.3  7410
 8 30F53 YH     4 pin     27.8 10300
 9 30K64        1 pin     20.0 11700
10 30K64        2 pin     20.0 10700
# ℹ 38 more rows
…
 [1] 30F53 HX.1 30F53 HX.2 30F53 HX.3 30F53 HX.4 30F53 YH.1 30F53 YH.2
 [7] 30F53 YH.3 30F53 YH.4 30K64.1    30K64.2    30K64.3    30K64.4   
[13] 30S31H.1   30S31H.2   30S31H.3   30S31H.4   30S31YH.1  30S31YH.2 
[19] 30S31YH.3  30S31YH.4  BG7049H.1  BG7049H.2  BG7049H.3  BG7049H.4 
[25] 30F53 HX.1 30F53 HX.2 30F53 HX.3 30F53 HX.4 30F53 YH.1 30F53 YH.2
[31] 30F53 YH.3 30F53 YH.4 30K64.1    30K64.2    30K64.3    30K64.4   
[37] 30S31H.1   30S31H.2   30S31H.3   30S31H.4   30S31YH.1  30S31YH.2 
[43] 30S31YH.3  30S31YH.4  BG7049H.1  BG7049H.2  BG7049H.3  BG7049H.4 
24 Levels: 30F53 HX.1 30F53 YH.1 30K64.1 30S31H.1 30S31YH.1 ... BG7049H.4

milho |> 
  mutate(hybrid_block = interaction(hybrid, block)) # fator único entre hibrido e bloco - uma coluna

# A tibble: 48 × 6
   hybrid   block method index yield hybrid_block
   <chr>    <dbl> <chr>  <dbl> <dbl> <fct>       
 1 30F53 HX     1 pin     21.1 12920 30F53 HX.1  
 2 30F53 HX     2 pin     21.1  9870 30F53 HX.2  
 3 30F53 HX     3 pin     23.3  8920 30F53 HX.3  
 4 30F53 HX     4 pin     35.6 13120 30F53 HX.4  
 5 30F53 YH     1 pin     21.1 12060 30F53 YH.1  
 6 30F53 YH     2 pin     22.2  7860 30F53 YH.2  
 7 30F53 YH     3 pin     27.3  7410 30F53 YH.3  
 8 30F53 YH     4 pin     27.8 10300 30F53 YH.4  
 9 30K64        1 pin     20.0 11700 30K64.1     
10 30K64        2 pin     20.0 10700 30K64.2     
# ℹ 38 more rows
…
7.10 Análise de regressão

A Análise de Regressão é uma técnica estatística usada para modelar e investigar a relação entre uma variável dependente (resposta) e uma ou mais variáveis independentes (preditoras). O objetivo principal é entender como as mudanças nas variáveis independentes estão associadas às mudanças na variável dependente e, em muitos casos, prever o valor da variável dependente com base nos valores das variáveis independentes. Existem vários tipos de regressão, mas a mais comum é a Regressão Linear Simples, que modela uma relação linear entre uma variável dependente e uma única variável independente. A Regressão Linear Múltipla estende isso para múltiplas variáveis independentes. O resultado de uma análise de regressão é um modelo matemático (uma equação) que descreve essa relação, permitindo, por exemplo, estimar o impacto de um fator sobre outro ou fazer previsões.

estande

# A tibble: 72 × 4
     exp  trat bloco nplants
   <dbl> <dbl> <dbl>   <dbl>
 1     1     0     1      66
 2     1     0     2      72
 3     1     0     3      50
 4     1     0     4      27
 5     1     3     1      68
 6     1     3     2      79
 7     1     3     3      31
 8     1     3     4      32
 9     1     6     1      58
10     1     6     2      56
# ℹ 62 more rows
…
7.12 Regressão não linear

A Regressão Não Linear é uma técnica estatística utilizada para modelar a relação entre uma variável dependente e uma ou mais variáveis independentes, quando essa relação não pode ser descrita por uma linha reta. Ao contrário da regressão linear, que assume uma relação linear direta, a regressão não linear utiliza funções matemáticas não lineares (curvas) para ajustar os dados.

Essa abordagem é necessária quando os fenômenos estudados apresentam padrões de crescimento, decaimento, saturação ou outras formas curvilíneas. Por exemplo, o crescimento populacional, a resposta de uma planta a um nutriente ou a taxa de uma reação química podem seguir curvas e não linhas retas.

Para ajustar um modelo de regressão não linear, é preciso especificar a forma da função não linear com base no conhecimento teórico ou na visualização dos dados. Os parâmetros dessa função são então estimados para encontrar a curva que melhor se ajusta aos pontos observados.

fungi

# A tibble: 240 × 9
   code   year trial state  dose replicate germination ...8  ...9 
   <chr> <dbl> <dbl> <chr> <dbl>     <dbl>       <dbl> <lgl> <lgl>
 1 FGT05  2007     1 RS     0            1          46 NA    NA   
 2 FGT05  2007     1 RS     0            2          44 NA    NA   
 3 FGT05  2007     1 RS     0.05         1          18 NA    NA   
 4 FGT05  2007     1 RS     0.05         2          24 NA    NA   
 5 FGT05  2007     1 RS     0.5          1           9 NA    NA   
 6 FGT05  2007     1 RS     0.5          2          11 NA    NA   
 7 FGT05  2007     1 RS     1            1           0 NA    NA   
 8 FGT05  2007     1 RS     1            2           0 NA    NA   
 9 FGT05  2007     1 RS     5            1           0 NA    NA   
10 FGT05  2007     1 RS     5            2           0 NA    NA   
# ℹ 230 more rows
…
8.2 Importar dados

Usaremos a função gsheet2tbl() do pacote [gsheet] para carregar os dados no ambiente.

library(gsheet)

library(DT)
datatable(cr)

cr

# A tibble: 405 × 13
    farm region zone       district      lon   lat altitude cultivar shade    
   <dbl> <chr>  <chr>      <chr>       <dbl> <dbl>    <dbl> <chr>    <chr>    
 1     1 SNNPR  Bench Maji Debub Bench  35.4  6.90     1100 Local    Sun      
 2     2 SNNPR  Bench Maji Debub Bench  35.4  6.90     1342 Mixture  Mid shade
 3     3 SNNPR  Bench Maji Debub Bench  35.4  6.90     1434 Mixture  Mid shade
 4     4 SNNPR  Bench Maji Debub Bench  35.4  6.90     1100 Local    Sun      
 5     5 SNNPR  Bench Maji Debub Bench  35.4  6.90     1400 Local    Sun      
 6     6 SNNPR  Bench Maji Debub Bench  35.4  6.90     1342 Mixture  Mid shade
 7     7 SNNPR  Bench Maji Debub Bench  35.4  6.90     1432 Mixture  Mid shade
 8     8 SNNPR  Bench Maji Debub Bench  35.4  6.90     1100 Local    Sun      
 9     9 SNNPR  Bench Maji Debub Bench  35.4  6.89     1400 Local    Sun      
10    10 SNNPR  Bench Maji Debub Bench  35.4  6.88     1342 Mixture  Mid shade
# ℹ 395 more rows
# ℹ 4 more variables: cropping_system <chr>, farm_management <chr>, inc <dbl>,
#   sev2 <dbl>
…
